{
	"info": {
		"_postman_id": "2a4f27bc-7b40-4221-a3c5-b17d668f67a8",
		"name": "s36-activity",
		"schema": "https://schema.getpostman.com/json/collection/v2.1.0/collection.json",
		"_exporter_id": "27450331"
	},
	"item": [
		{
			"name": "get task",
			"request": {
				"method": "GET",
				"header": [],
				"url": {
					"raw": "localhost:3000/tasks/64acf496ef3d23c80b13b813",
					"host": [
						"localhost"
					],
					"port": "3000",
					"path": [
						"tasks",
						"64acf496ef3d23c80b13b813"
					]
				}
			},
			"response": []
		},
		{
			"name": "update status",
			"request": {
				"method": "PUT",
				"header": [],
				"url": {
					"raw": "localhost:3000/tasks/64acf496ef3d23c80b13b813/complete",
					"host": [
						"localhost"
					],
					"port": "3000",
					"path": [
						"tasks",
						"64acf496ef3d23c80b13b813",
						"complete"
					]
				}
			},
			"response": []
		}
	]
}